\relax 
\@writefile{toc}{\contentsline {section}{\numberline {1}Informacje og\'olne}{3}}
\@writefile{toc}{\contentsline {section}{\numberline {2}Instrukcja obs\IeC {\l }ugi}{3}}
\@writefile{toc}{\contentsline {section}{\numberline {3}Silnik gry, Rafa\IeC {\l } \.Zmijewski}{4}}
\@writefile{toc}{\contentsline {subsection}{\numberline {3.1}Informacje og\'olne}{4}}
\@writefile{toc}{\contentsline {subsection}{\numberline {3.2}Zarys klasy}{4}}
\@writefile{toc}{\contentsline {subsection}{\numberline {3.3}Opis funkcji}{5}}
\@writefile{toc}{\contentsline {subsection}{\numberline {3.4}Idee rozszerzenia klasy}{6}}
\@writefile{toc}{\contentsline {section}{\numberline {4}Interfejs graficzny, Patryk Wojdy\IeC {\l }a}{6}}
\@writefile{toc}{\contentsline {subsection}{\numberline {4.1}Informacje og\'olne}{6}}
\@writefile{toc}{\contentsline {subsection}{\numberline {4.2}Og\'olny zarys klas}{6}}
\@writefile{toc}{\contentsline {subsection}{\numberline {4.3}Om\'owienie funkcji}{7}}
\@writefile{toc}{\contentsline {subsubsection}{\numberline {4.3.1}Funkcje klasy GameView}{7}}
\@writefile{toc}{\contentsline {subsubsection}{\numberline {4.3.2}Funkcje klasy Area}{10}}
\@writefile{toc}{\contentsline {subsection}{\numberline {4.4}Idee poszerzenia funkcjonalno\'sci}{11}}
